…
### Which 5-minute interval, on average across all the days in the dataset, contains the maximum number of steps?

I will use the same chunk of code from the previous task but without the plot and the data will be arranged by decending number of average steps taken per 5 minute interval. 


```r
activity %>%
        group_by(interval) %>%
        summarise(average = mean(steps, na.rm = TRUE)) %>% 
        arrange(desc(average))
```

```
## # A tibble: 288 x 2
##    interval average
##       <dbl>   <dbl>
##  1      835    206.
##  2      840    196.
##  3      850    183.
##  4      845    180.
##  5      830    177.
##  6      820    171.
##  7      855    167.
##  8      815    158.
##  9      825    155.
## 10      900    143.
## # … with 278 more rows
```
…
